maksdato   2023-10-01 23:59:59 10.58  5.85
2023-10-02 23:59:59  9.40  5.53
2023-10-03 23:59:59  8.53  5.23
2023-10-04 23:59:59  9.18  5.29
2023-10-05 23:59:59  7.58  4.82
2023-10-06 23:59:59  6.65  4.51
2023-10-07 23:59:59  5.43  4.12
2023-10-08 23:59:59  4.38  3.70
2023-10-09 23:59:59  3.93  3.46
2023-10-10 23:59:59  7.68  4.39
2023-10-11 23:59:59  8.80  4.57
2023-10-12 23:59:59  8.38  4.38
2023-10-13 23:59:59  7.12  3.99
2023-10-14 23:59:59  7.65  4.03
2023-10-15 23:59:59  5.63  3.45
2023-10-16 23:59:59  5.23  3.30
2023-10-17 23:59:59  5.58  3.32
2023-10-18 23:59:59  4.38  2.96
2023-10-19 23:59:59  2.00  2.28
2023-10-20 23:59:59  1.35  2.07
2023-10-21 23:59:59  1.73  2.12
2023-10-22 23:59:59  2.60  2.30
2023-10-23 23:59:59  3.38  2.44
2023-10-24 23:59:59  3.63  2.45
2023-10-25 23:59:59  2.00  2.01
2023-10-26 23:59:59  1.45  1.84
2023-10-27 23:59:59  0.70  1.62
2023-10-28 23:59:59  0.38  1.51
2023-10-29 23:59:59 -1.82  1.12
2023-10-30 23:59:59 -1.50  1.14
2023-10-31 23:59:59 -1.00  1.21
2023-11-01 23:59:59 -1.55  1.11
2023-11-02 23:59:59 -0.47  1.22
2023-11-03 23:59:59  1.08  1.46
2023-11-04 23:59:59  1.60  1.53
2023-11-05 23:59:59  2.18  1.60
2023-11-06 23:59:59  2.80  1.68
2023-11-07 23:59:59  1.98  1.47
2023-11-08 23:59:59  1.20  1.28
2023-11-09 23:59:59  1.73  1.34
2023-11-10 23:59:59  2.10  1.36
2023-11-11 23:59:59  1.03  1.13
2023-11-12 23:59:59 -0.02  0.91
2023-11-13 23:59:59 -2.27  0.75
2023-11-14 23:59:59 -3.70  0.66
2023-11-15 23:59:59 -5.37  0.56
2023-11-16 23:59:59 -5.25  0.57
2023-11-17 23:59:59 -7.60  0.28
2023-11-18 23:59:59 -9.57  0.05
2023-11-19 23:59:59 -8.75  0.15
2023-11-20 23:59:59 -5.42  0.53
2023-11-21 23:59:59 -3.40  0.66
2023-11-22 23:59:59  0.40  0.91
2023-11-23 23:59:59  0.28  0.89
2023-11-24 23:59:59  0.08  0.87
2023-11-25 23:59:59 -2.02  0.75
2023-11-26 23:59:59 -5.15  0.55
2023-11-27 23:59:59 -6.40  0.40
2023-11-28 23:59:59 -5.72  0.48
2023-11-29 23:59:59 -2.82  0.70
2023-11-30 23:59:59 -3.97  0.62
2023-12-01 23:59:59 -9.90  0.01
2023-12-02 23:59:59-13.07  0.00
2023-12-03 23:59:59-14.97  0.00
2023-12-04 23:59:59-16.50  0.00
2023-12-05 23:59:59-16.55  0.00
2023-12-06 23:59:59-15.02  0.00
2023-12-07 23:59:59-11.32  0.00
2023-12-08 23:59:59 -6.57  0.36
2023-12-09 23:59:59 -2.42  0.75
2023-12-10 23:59:59 -1.82  0.80
2023-12-11 23:59:59 -2.25  0.77
2023-12-12 23:59:59 -4.00  0.60
2023-12-13 23:59:59 -6.27  0.38
2023-12-14 23:59:59 -8.87  0.11
2023-12-15 23:59:59-10.22  0.00
2023-12-16 23:59:59 -4.75  0.51
2023-12-17 23:59:59 -3.97  0.57
2023-12-18 23:59:59 -3.37  0.61
2023-12-19 23:59:59 -3.57  0.57
2023-12-20 23:59:59 -6.97  0.26
2023-12-21 23:59:59 -5.57  0.37
2023-12-22 23:59:59 -4.30  0.46
2023-12-23 23:59:59 -8.35  0.13
2023-12-24 23:59:59 -9.52  0.04
2023-12-25 23:59:59 -9.37  0.05
2023-12-26 23:59:59-11.22  0.00
2023-12-27 23:59:59-10.72  0.00
2023-12-28 23:59:59 -7.20  0.18
2023-12-29 23:59:59 -4.87  0.32
2023-12-30 23:59:59 -3.40  0.38
2023-12-31 23:59:59 -4.17  0.34
2024-01-01 23:59:59 -5.97  0.23
2024-01-02 23:59:59 -8.10  0.10
2024-01-03 23:59:59 -9.70  0.02
2024-01-04 23:59:59-14.40  0.00
2024-01-05 23:59:59-22.60  0.00
2024-01-06 23:59:59-22.60  0.00
2024-01-07 23:59:59-22.07  0.00
2024-01-08 23:59:59-18.47  0.00
2024-01-09 23:59:59-12.60  0.00
2024-01-10 23:59:59 -6.40  0.12
2024-01-11 23:59:59 -1.77  0.20
2024-01-12 23:59:59 -2.70  0.16
2024-01-13 23:59:59 -2.82  0.14
2024-01-14 23:59:59 -4.30  0.12
2024-01-15 23:59:59-16.17  0.00
2024-01-16 23:59:59-16.57  0.00
2024-01-17 23:59:59-12.07  0.00
2024-01-18 23:59:59-16.35  0.00
2024-01-19 23:59:59-21.15  0.00
2024-01-20 23:59:59-19.30  0.00
2024-01-21 23:59:59 -9.72  0.01
2024-01-22 23:59:59  1.63  0.16
2024-01-23 23:59:59  2.58  0.18
2024-01-24 23:59:59 -0.75  0.13
2024-01-25 23:59:59 -5.17  0.10
2024-01-26 23:59:59 -4.92  0.10
2024-01-27 23:59:59 -7.15  0.06
2024-01-28 23:59:59 -0.70  0.14
2024-01-29 23:59:59 -0.88  0.14
2024-01-30 23:59:59 -6.40  0.07
2024-01-31 23:59:59 -3.82  0.11
2024-02-01 23:59:59 -2.90  0.12
2024-02-02 23:59:59 -2.90  0.12
2024-02-03 23:59:59  0.60  0.17
2024-02-04 23:59:59 -3.57  0.12
2024-02-05 23:59:59 -9.40  0.01
2024-02-06 23:59:59-11.72  0.00
2024-02-07 23:59:59-16.62  0.00
2024-02-08 23:59:59-21.22  0.00
2024-02-09 23:59:59-17.82  0.00
2024-02-10 23:59:59-12.00  0.00
2024-02-11 23:59:59 -8.67  0.03
2024-02-12 23:59:59 -5.87  0.08
2024-02-13 23:59:59 -5.90  0.08
2024-02-14 23:59:59 -4.65  0.11
2024-02-15 23:59:59 -4.00  0.12
2024-02-16 23:59:59 -4.51  0.12
2024-02-17 23:59:59 -5.54  0.10
2024-02-18 23:59:59 -6.67  0.08
2024-02-19 23:59:59 -7.47  0.06
2024-02-20 23:59:59 -6.00  0.11
2024-02-21 23:59:59 -2.45  0.23
2024-02-22 23:59:59  1.25  0.41
2024-02-23 23:59:59  2.68  0.51
2024-02-24 23:59:59  2.03  0.51
2024-02-25 23:59:59  0.55  0.44
2024-02-26 23:59:59 -3.15  0.26
2024-02-27 23:59:59 -1.25  0.38
2024-02-28 23:59:59  2.75  0.68
2024-02-29 23:59:59  3.38  0.77
2024-03-01 23:59:59  2.35  0.74
2024-03-02 23:59:59  1.68  0.71
2024-03-03 23:59:59  1.63  0.73
2024-03-04 23:59:59  1.50  0.74
2024-03-05 23:59:59  0.55  0.66
2024-03-06 23:59:59 -1.85  0.48
2024-03-07 23:59:59 -3.15  0.39
2024-03-08 23:59:59 -2.15  0.49
2024-03-09 23:59:59 -1.00  0.60
2024-03-10 23:59:59 -2.10  0.52
2024-03-11 23:59:59 -4.12  0.35
2024-03-12 23:59:59 -3.97  0.37
2024-03-13 23:59:59 -0.22  0.74
2024-03-14 23:59:59  4.03  1.41
2024-03-15 23:59:59  2.13  1.14
2024-03-16 23:59:59 -0.50  0.78
2024-03-17 23:59:59 -2.62  0.58
2024-03-18 23:59:59 -1.57  0.72
2024-03-19 23:59:59 -0.22  0.92
2024-03-20 23:59:59  0.95  1.15
2024-03-21 23:59:59  2.68  1.51
2024-03-22 23:59:59  3.83  1.78
2024-03-23 23:59:59  2.85  1.64
2024-03-24 23:59:59  1.70  1.46
2024-03-25 23:59:59  0.33  1.23
2024-03-26 23:59:59 -0.27  1.16
2024-03-27 23:59:59 -2.52  0.79
2024-03-28 23:59:59 -3.25  0.67
