interval_from,interval_to,default_B0_min,default_B0_max,default_B0_mean,default_B0_stDev,default_B0_sampleCount,default_B0_noDataCount,ice_condition
2023-09-12,2023-09-13,52.0,192.0,115.82,17.09,65536,0,No ice
2023-09-17,2023-09-18,143.0,236.0,193.38,9.43,65536,0,No ice
2023-09-24,2023-09-25,155.0,223.0,186.53,8.26,65536,0,No ice
2023-10-02,2023-10-03,72.0,255.0,146.67,18.72,65536,0,No ice
2023-10-04,2023-10-05,132.0,184.0,156.12,5.82,65536,0,Ice
2023-10-12,2023-10-13,144.0,255.0,186.95,10.86,65536,0,No ice
2023-10-17,2023-10-18,157.0,235.0,193.67,8.66,65536,0,No ice
2023-10-19,2023-10-20,141.0,203.0,168.37,7.47,65536,0,No ice
2023-11-18,2023-11-19,163.0,253.0,202.24,11.41,65536,0,No ice
2023-12-03,2023-12-04,142.0,229.0,179.99,12.65,65536,0,No ice
2023-12-23,2023-12-24,103.0,122.0,111.55,2.58,65536,0,Ice
2023-12-26,2023-12-27,109.0,122.0,115.83,1.68,65536,0,Ice
2024-01-05,2024-01-06,107.0,117.0,111.94,1.32,65536,0,Ice
2024-01-25,2024-01-26,115.0,124.0,119.55,1.05,65536,0,Ice
2024-02-01,2024-02-02,114.0,128.0,118.01,1.26,65536,0,Ice
2024-02-09,2024-02-10,116.0,124.0,120.14,1.02,65536,0,Ice
2024-02-21,2024-02-22,120.0,126.0,122.65,0.75,65536,0,Ice
2024-02-26,2024-02-27,125.0,194.0,132.46,1.72,65536,0,Ice
2024-03-07,2024-03-08,128.0,236.0,166.79,20.65,65536,0,No ice
2024-03-12,2024-03-13,122.0,211.0,149.52,14.76,65536,0,No ice
2024-04-01,2024-04-02,122.0,238.0,154.82,14.9,65536,0,No ice
2024-04-16,2024-04-17,118.0,155.0,132.93,4.43,65536,0,Ice
2024-04-21,2024-04-22,82.0,216.0,179.98,22.89,65536,0,No ice
2024-05-04,2024-05-05,115.0,142.0,128.32,3.22,65536,0,Ice
2024-05-14,2024-05-15,136.0,199.0,169.73,10.25,65536,0,No ice
2024-05-16,2024-05-17,130.0,170.0,151.3,5.28,65536,0,Ice
