10:43: weatherelement.py -> patch_novalue_in_weather_element_list: Value missing on UTM33 X316405 Y7042107 2024-02-17 06:00:00 sd. Adding avg value 41.525.
10:43: weatherelement.py -> patch_novalue_in_weather_element_list: Value missing on UTM33 X316405 Y7042107 2024-02-18 06:00:00 sd. Adding avg value 41.8625.
10:43: weatherelement.py -> patch_novalue_in_weather_element_list: Value missing on UTM33 X316405 Y7042107 2024-02-17 06:00:00 sd. Adding avg value 41.525.
10:43: weatherelement.py -> patch_novalue_in_weather_element_list: Value missing on UTM33 X316405 Y7042107 2024-02-18 06:00:00 sd. Adding avg value 41.8625.
10:48: weatherelement.py -> patch_novalue_in_weather_element_list: Value missing on UTM33 X316405 Y7042107 2024-02-17 06:00:00 sd. Adding avg value 41.525.
10:48: weatherelement.py -> patch_novalue_in_weather_element_list: Value missing on UTM33 X316405 Y7042107 2024-02-18 06:00:00 sd. Adding avg value 41.8625.
10:49: weatherelement.py -> patch_novalue_in_weather_element_list: Value missing on UTM33 X316405 Y7042107 2024-02-17 06:00:00 sd. Adding avg value 41.525.
10:49: weatherelement.py -> patch_novalue_in_weather_element_list: Value missing on UTM33 X316405 Y7042107 2024-02-18 06:00:00 sd. Adding avg value 41.8625.
10:54: weatherelement.py -> patch_novalue_in_weather_element_list: Value missing on UTM33 X316405 Y7042107 2024-02-17 06:00:00 sd. Adding avg value 41.525.
10:54: weatherelement.py -> patch_novalue_in_weather_element_list: Value missing on UTM33 X316405 Y7042107 2024-02-18 06:00:00 sd. Adding avg value 41.8625.
10:54: weatherelement.py -> patch_novalue_in_weather_element_list: Value missing on UTM33 X316405 Y7042107 2024-02-17 06:00:00 sd. Adding avg value 41.525.
10:54: weatherelement.py -> patch_novalue_in_weather_element_list: Value missing on UTM33 X316405 Y7042107 2024-02-18 06:00:00 sd. Adding avg value 41.8625.
10:55: weatherelement.py -> patch_novalue_in_weather_element_list: Value missing on UTM33 X316405 Y7042107 2024-02-17 06:00:00 sd. Adding avg value 41.525.
10:55: weatherelement.py -> patch_novalue_in_weather_element_list: Value missing on UTM33 X316405 Y7042107 2024-02-18 06:00:00 sd. Adding avg value 41.8625.
10:56: weatherelement.py -> patch_novalue_in_weather_element_list: Value missing on UTM33 X316405 Y7042107 2024-02-17 06:00:00 sd. Adding avg value 41.525.
10:56: weatherelement.py -> patch_novalue_in_weather_element_list: Value missing on UTM33 X316405 Y7042107 2024-02-18 06:00:00 sd. Adding avg value 41.8625.
10:59: weatherelement.py -> patch_novalue_in_weather_element_list: Value missing on UTM33 X316405 Y7042107 2024-02-17 06:00:00 sd. Adding avg value 41.525.
10:59: weatherelement.py -> patch_novalue_in_weather_element_list: Value missing on UTM33 X316405 Y7042107 2024-02-18 06:00:00 sd. Adding avg value 41.8625.
11:06: weatherelement.py -> patch_novalue_in_weather_element_list: Value missing on UTM33 X316405 Y7042107 2024-02-17 06:00:00 sd. Adding avg value 41.525.
11:06: weatherelement.py -> patch_novalue_in_weather_element_list: Value missing on UTM33 X316405 Y7042107 2024-02-18 06:00:00 sd. Adding avg value 41.8625.
11:06: weatherelement.py -> patch_novalue_in_weather_element_list: Value missing on UTM33 X316405 Y7042107 2024-02-17 06:00:00 sd. Adding avg value 41.525.
11:06: weatherelement.py -> patch_novalue_in_weather_element_list: Value missing on UTM33 X316405 Y7042107 2024-02-18 06:00:00 sd. Adding avg value 41.8625.
11:06: weatherelement.py -> patch_novalue_in_weather_element_list: Value missing on UTM33 X316405 Y7042107 2024-02-17 06:00:00 sd. Adding avg value 41.525.
11:06: weatherelement.py -> patch_novalue_in_weather_element_list: Value missing on UTM33 X316405 Y7042107 2024-02-18 06:00:00 sd. Adding avg value 41.8625.
11:08: weatherelement.py -> patch_novalue_in_weather_element_list: Value missing on UTM33 X316405 Y7042107 2024-02-17 06:00:00 sd. Adding avg value 41.525.
11:08: weatherelement.py -> patch_novalue_in_weather_element_list: Value missing on UTM33 X316405 Y7042107 2024-02-18 06:00:00 sd. Adding avg value 41.8625.
11:42: weatherelement.py -> patch_novalue_in_weather_element_list: Value missing on UTM33 X316405 Y7042107 2024-02-17 06:00:00 sd. Adding avg value 41.525.
11:42: weatherelement.py -> patch_novalue_in_weather_element_list: Value missing on UTM33 X316405 Y7042107 2024-02-18 06:00:00 sd. Adding avg value 41.8625.
11:44: weatherelement.py -> patch_novalue_in_weather_element_list: Value missing on UTM33 X316405 Y7042107 2024-02-17 06:00:00 sd. Adding avg value 41.525.
11:44: weatherelement.py -> patch_novalue_in_weather_element_list: Value missing on UTM33 X316405 Y7042107 2024-02-18 06:00:00 sd. Adding avg value 41.8625.
13:02: weatherelement.py -> patch_novalue_in_weather_element_list: Value missing on UTM33 X316405 Y7042107 2024-02-17 06:00:00 sd. Adding avg value 41.525.
13:02: weatherelement.py -> patch_novalue_in_weather_element_list: Value missing on UTM33 X316405 Y7042107 2024-02-18 06:00:00 sd. Adding avg value 41.8625.
13:07: weatherelement.py -> patch_novalue_in_weather_element_list: Value missing on UTM33 X316405 Y7042107 2024-02-17 06:00:00 sd. Adding avg value 41.525.
13:07: weatherelement.py -> patch_novalue_in_weather_element_list: Value missing on UTM33 X316405 Y7042107 2024-02-18 06:00:00 sd. Adding avg value 41.8625.
13:21: weatherelement.py -> patch_novalue_in_weather_element_list: Value missing on UTM33 X316405 Y7042107 2024-02-17 06:00:00 sd. Adding avg value 41.525.
13:21: weatherelement.py -> patch_novalue_in_weather_element_list: Value missing on UTM33 X316405 Y7042107 2024-02-18 06:00:00 sd. Adding avg value 41.8625.
13:23: weatherelement.py -> patch_novalue_in_weather_element_list: Value missing on UTM33 X316405 Y7042107 2024-02-17 06:00:00 sd. Adding avg value 41.525.
13:23: weatherelement.py -> patch_novalue_in_weather_element_list: Value missing on UTM33 X316405 Y7042107 2024-02-18 06:00:00 sd. Adding avg value 41.8625.
14:33: [error] getgts.py -> getgts: {'Error': 'Tema: tm. No cell exists for coordinates 1684351, 6087475.'}
14:33: [error] getgts.py -> getgts: {'Error': 'Tema: sdfsw. No cell exists for coordinates 1684351, 6087475.'}
14:33: [error] getgts.py -> getgts: {'Error': 'Tema: sd. No cell exists for coordinates 1684351, 6087475.'}
14:33: [warning] weatherelement.py -> adjust_temperature_to_new_altitude: weather_element_list of len=0
14:33: [warning] weatherelement.py -> strip_metadata: weather_element_list of len=0
14:33: [warning] weatherelement.py -> strip_metadata: weather_element_list of len=0
14:33: [warning] weatherelement.py -> strip_metadata: weather_element_list of len=0
14:33: [error] getgts.py -> getgts: {'Error': 'Tema: tm. No cell exists for coordinates 1684351, 6087475.'}
14:33: [error] getgts.py -> getgts: {'Error': 'Tema: sdfsw. No cell exists for coordinates 1684351, 6087475.'}
14:33: [error] getgts.py -> getgts: {'Error': 'Tema: sd. No cell exists for coordinates 1684351, 6087475.'}
14:33: [warning] weatherelement.py -> adjust_temperature_to_new_altitude: weather_element_list of len=0
14:33: [warning] weatherelement.py -> strip_metadata: weather_element_list of len=0
14:33: [warning] weatherelement.py -> strip_metadata: weather_element_list of len=0
14:33: [warning] weatherelement.py -> strip_metadata: weather_element_list of len=0
14:35: [error] getgts.py -> getgts: {'Error': 'Tema: tm. No cell exists for coordinates 6087719, 1684394.'}
14:35: [error] getgts.py -> getgts: {'Error': 'Tema: sdfsw. No cell exists for coordinates 6087719, 1684394.'}
14:35: [error] getgts.py -> getgts: {'Error': 'Tema: sd. No cell exists for coordinates 6087719, 1684394.'}
14:35: [warning] weatherelement.py -> adjust_temperature_to_new_altitude: weather_element_list of len=0
14:35: [warning] weatherelement.py -> strip_metadata: weather_element_list of len=0
14:35: [warning] weatherelement.py -> strip_metadata: weather_element_list of len=0
14:35: [warning] weatherelement.py -> strip_metadata: weather_element_list of len=0
14:35: weatherelement.py -> patch_novalue_in_weather_element_list: Value missing on UTM33 X316405 Y7042107 2024-02-17 06:00:00 sd. Adding avg value 41.525.
14:35: weatherelement.py -> patch_novalue_in_weather_element_list: Value missing on UTM33 X316405 Y7042107 2024-02-18 06:00:00 sd. Adding avg value 41.8625.
14:36: weatherelement.py -> patch_novalue_in_weather_element_list: Value missing on UTM33 X267095 Y6746083 2024-02-17 06:00:00 sd. Adding avg value 70.95.
14:36: weatherelement.py -> patch_novalue_in_weather_element_list: Value missing on UTM33 X267095 Y6746083 2024-02-18 06:00:00 sd. Adding avg value 70.125.
